tibble::deframe and writexl::write_xlsx - Harris McGehee
…
deframe() converts two-column data frames to a named vector or list, using the first column as name and the second column as value.

Load packages:

suppressPackageStartupMessages(library(tidyverse))
library(writexl)

Create the thing that I want collaborator to see:

counts <- ggplot2::diamonds %>% 
  dplyr::count(color, cut) %>% 
  dplyr::arrange(color, desc(n)) %>% 
  print()

## # A tibble: 35 x 3
##    color       cut     n
##    <ord>     <ord> <int>
##  1     D     Ideal  2834
##  2     D   Premium  1603
##  3     D Very Good  1513
##  4     D      Good   662
##  5     D      Fair   163
##  6     E     Ideal  3903
##  7     E Very Good  2400
##  8     E   Premium  2337
##  9     E      Good   933
## 10     E      Fair   224
## # ... with 25 more rows
…
